meteors_big.png
<rect(0, 0, 120, 98)>
<rect(0, 98, 120, 98)>
<rect(0, 196, 120, 98)>
<rect(0, 294, 120, 98)>
meteors_med.png
<rect(0, 0, 45, 43)>
<rect(0, 43, 45, 43)>
meteors_small.png
<rect(0, 0, 29, 28)>
<rect(0, 28, 29, 28)>
meteors_tiny.png
<rect(0, 0, 18, 18)>
<rect(0, 18, 18, 18)>
