{ "height":19,
 "infinite":false,
 "layers":[
        {
         "compression":"zlib",
         "data":"eJzTZGBg0KQxxgZobedgs5cUMGovfewl132DyV5ahddA2UuKuwarvdR033CyV2OA7KV2Phq1d+jZCwCuujgO",
         "encoding":"base64",
         "height":19,
         "name":"Background",
         "opacity":1,
         "type":"tilelayer",
         "visible":false,
         "width":30,
         "x":0,
         "y":0
        }, 
        {
         "compression":"zlib",
         "data":"eJxjYBgFo2D4ANNRPIpHMcV4FAxv8IiRgeExED8B4qeM5IuTCl4B9b4G4jeMlImTCgDLWj59",
         "encoding":"base64",
         "height":19,
         "name":"Water",
         "opacity":1,
         "type":"tilelayer",
         "visible":true,
         "width":30,
         "x":0,
         "y":0
        }, 
        {
         "compression":"zlib",
         "data":"eJxjYBgFo2AUjIJRMApGwSgYngAACOgAAQ==",
         "encoding":"base64",
         "height":19,
         "name":"Interactive",
         "opacity":1,
         "type":"tilelayer",
         "visible":false,
         "width":30,
         "x":0,
         "y":0
        }, 
        {
         "compression":"zlib",
         "data":"eJxjYBgFo2AUjIJRMApGwSgYngAACOgAAQ==",
         "encoding":"base64",
         "height":19,
         "name":"Over",
         "opacity":1,
         "type":"tilelayer",
         "visible":false,
         "width":30,
         "x":0,
         "y":0
        }, 
        {
         "draworder":"topdown",
         "name":"Rock Borders",
         "objects":[
                {
                 "gid":64,
                 "height":98,
                 "id":249,
                 "name":"",
                 "rotation":0,
                 "type":"",
                 "visible":true,
                 "width":120,
                 "x":-36,
                 "y":280
                }, 
                {
                 "gid":66,
                 "height":98,
                 "id":250,
                 "name":"",
                 "rotation":0,
                 "type":"",
                 "visible":true,
                 "width":120,
                 "x":-24,
                 "y":439
                }, 
                {
                 "gid":61,
                 "height":43,
                 "id":251,
                 "name":"",
                 "rotation":-79.8033581725976,
                 "type":"",
                 "visible":true,
                 "width":45,
                 "x":207.677319945465,
                 "y":209.450716357957
                }, 
                {
                 "gid":61,
                 "height":43,
                 "id":252,
                 "name":"",
                 "rotation":-1.05057086961794,
                 "type":"",
                 "visible":true,
                 "width":45,
                 "x":130.397982416842,
                 "y":451.408920985612
                }, 
                {
                 "gid":61,
                 "height":43,
                 "id":253,
                 "name":"",
                 "rotation":0.0764452908802541,
                 "type":"",
                 "visible":true,
                 "width":45,
                 "x":269.971334261672,
                 "y":456.969960876785
                }, 
                {
                 "gid":61,
                 "height":43,
                 "id":254,
                 "name":"",
                 "rotation":-27.6303457917562,
                 "type":"",
                 "visible":true,
                 "width":45,
                 "x":423.536897926864,
                 "y":462.982818675973
                }, 
                {
                 "gid":61,
                 "height":43,
                 "id":255,
                 "name":"",
                 "rotation":-53.1820849495172,
                 "type":"",
                 "visible":true,
                 "width":45,
                 "x":478.228033037338,
                 "y":459.396630393499
                }, 
                {
                 "gid":62,
                 "height":43,
                 "id":256,
                 "name":"",
                 "rotation":295.436216380417,
                 "type":"",
                 "visible":true,
                 "width":45,
                 "x":233.251989736484,
                 "y":455.053319545856
                }, 
                {
                 "gid":62,
                 "height":43,
                 "id":257,
                 "name":"",
                 "rotation":0,
                 "type":"",
                 "visible":true,
                 "width":45,
                 "x":68,
                 "y":446
                }, 
                {
                 "gid":62,
                 "height":43,
                 "id":258,
                 "name":"",
                 "rotation":-47.6200032198377,
                 "type":"",
                 "visible":true,
                 "width":45,
                 "x":345.215848205388,
                 "y":462.612498474839
                }, 
                {
                 "gid":62,
                 "height":43,
                 "id":259,
                 "name":"",
                 "rotation":-300.834615249232,
                 "type":"",
                 "visible":true,
                 "width":45,
                 "x":265.506378104994,
                 "y":168.200443046799
                }, 
                {
                 "gid":62,
                 "height":43,
                 "id":260,
                 "name":"",
                 "rotation":-309.512566340546,
                 "type":"",
                 "visible":true,
                 "width":45,
                 "x":66.597503844032,
                 "y":183.820906180812
                }, 
                {
                 "gid":62,
                 "height":43,
                 "id":261,
                 "name":"",
                 "rotation":0,
                 "type":"",
                 "visible":true,
                 "width":45,
                 "x":205,
                 "y":198
                }, 
                {
                 "gid":62,
                 "height":43,
                 "id":262,
                 "name":"",
                 "rotation":0,
                 "type":"",
                 "visible":true,
                 "width":45,
                 "x":356,
                 "y":197
                }, 
                {
                 "gid":61,
                 "height":43,
                 "id":263,
                 "name":"",
                 "rotation":0,
                 "type":"",
                 "visible":true,
                 "width":45,
                 "x":397,
                 "y":197
                }, 
                {
                 "gid":62,
                 "height":43,
                 "id":264,
                 "name":"",
                 "rotation":19.657720471078,
                 "type":"",
                 "visible":true,
                 "width":45,
                 "x":464.078712220992,
                 "y":195.177949399757
                }, 
                {
                 "gid":61,
                 "height":43,
                 "id":265,
                 "name":"",
                 "rotation":22.3498678706688,
                 "type":"",
                 "visible":true,
                 "width":45,
                 "x":576.514602618177,
                 "y":439.829021962103
                }, 
                {
                 "gid":62,
                 "height":43,
                 "id":266,
                 "name":"",
                 "rotation":-43.0067915163658,
                 "type":"",
                 "visible":true,
                 "width":45,
                 "x":527.711189218363,
                 "y":462.569279939958
                }, 
                {
                 "gid":61,
                 "height":43,
                 "id":267,
                 "name":"",
                 "rotation":-83.8309303324372,
                 "type":"",
                 "visible":true,
                 "width":45,
                 "x":594.457586221935,
                 "y":492.180152443571
                }, 
                {
                 "gid":61,
                 "height":43,
                 "id":268,
                 "name":"",
                 "rotation":-34.9020351851169,
                 "type":"",
                 "visible":true,
                 "width":45,
                 "x":599.348802689147,
                 "y":210.006765997774
                }, 
                {
                 "gid":62,
                 "height":43,
                 "id":269,
                 "name":"",
                 "rotation":-309.835028183111,
                 "type":"",
                 "visible":true,
                 "width":45,
                 "x":611.577287347665,
                 "y":168.994883422607
                }, 
                {
                 "gid":61,
                 "height":43,
                 "id":270,
                 "name":"",
                 "rotation":0,
                 "type":"",
                 "visible":true,
                 "width":45,
                 "x":627,
                 "y":455
                }, 
                {
                 "gid":59,
                 "height":28,
                 "id":271,
                 "name":"",
                 "rotation":0,
                 "type":"",
                 "visible":true,
                 "width":29,
                 "x":117,
                 "y":199
                }, 
                {
                 "gid":59,
                 "height":28,
                 "id":272,
                 "name":"",
                 "rotation":0,
                 "type":"",
                 "visible":true,
                 "width":29,
                 "x":361,
                 "y":438
                }, 
                {
                 "gid":59,
                 "height":28,
                 "id":273,
                 "name":"",
                 "rotation":0,
                 "type":"",
                 "visible":true,
                 "width":29,
                 "x":311,
                 "y":198
                }, 
                {
                 "gid":59,
                 "height":28,
                 "id":274,
                 "name":"",
                 "rotation":0,
                 "type":"",
                 "visible":true,
                 "width":29,
                 "x":699,
                 "y":189
                }, 
                {
                 "gid":59,
                 "height":28,
                 "id":275,
                 "name":"",
                 "rotation":0,
                 "type":"",
                 "visible":true,
                 "width":29,
                 "x":444,
                 "y":194
                }, 
                {
                 "gid":59,
                 "height":28,
                 "id":276,
                 "name":"",
                 "rotation":0,
                 "type":"",
                 "visible":true,
                 "width":29,
                 "x":250,
                 "y":441
                }, 
                {
                 "gid":59,
                 "height":28,
                 "id":277,
                 "name":"",
                 "rotation":0,
                 "type":"",
                 "visible":true,
                 "width":29,
                 "x":553,
                 "y":440
                }, 
                {
                 "gid":59,
                 "height":28,
                 "id":278,
                 "name":"",
                 "rotation":0,
                 "type":"",
                 "visible":true,
                 "width":29,
                 "x":389,
                 "y":444
                }, 
                {
                 "gid":60,
                 "height":28,
                 "id":279,
                 "name":"",
                 "rotation":0,
                 "type":"",
                 "visible":true,
                 "width":29,
                 "x":254,
                 "y":198
                }, 
                {
                 "gid":60,
                 "height":28,
                 "id":280,
                 "name":"",
                 "rotation":0,
                 "type":"",
                 "visible":true,
                 "width":29,
                 "x":675,
                 "y":190
                }, 
                {
                 "gid":60,
                 "height":28,
                 "id":281,
                 "name":"",
                 "rotation":0,
                 "type":"",
                 "visible":true,
                 "width":29,
                 "x":506,
                 "y":177
                }, 
                {
                 "gid":60,
                 "height":28,
                 "id":282,
                 "name":"",
                 "rotation":0,
                 "type":"",
                 "visible":true,
                 "width":29,
                 "x":548,
                 "y":195
                }, 
                {
                 "gid":60,
                 "height":28,
                 "id":283,
                 "name":"",
                 "rotation":0,
                 "type":"",
                 "visible":true,
                 "width":29,
                 "x":530,
                 "y":160
                }, 
                {
                 "gid":60,
                 "height":28,
                 "id":284,
                 "name":"",
                 "rotation":0,
                 "type":"",
                 "visible":true,
                 "width":29,
                 "x":675,
                 "y":440
                }, 
                {
                 "gid":57,
                 "height":18,
                 "id":286,
                 "name":"",
                 "rotation":0,
                 "type":"",
                 "visible":true,
                 "width":18,
                 "x":142,
                 "y":196
                }, 
                {
                 "gid":57,
                 "height":18,
                 "id":287,
                 "name":"",
                 "rotation":0,
                 "type":"",
                 "visible":true,
                 "width":18,
                 "x":308,
                 "y":434
                }, 
                {
                 "gid":57,
                 "height":18,
                 "id":288,
                 "name":"",
                 "rotation":0,
                 "type":"",
                 "visible":true,
                 "width":18,
                 "x":112,
                 "y":433
                }, 
                {
                 "gid":57,
                 "height":18,
                 "id":289,
                 "name":"",
                 "rotation":0,
                 "type":"",
                 "visible":true,
                 "width":18,
                 "x":188,
                 "y":432
                }, 
                {
                 "gid":57,
                 "height":18,
                 "id":290,
                 "name":"",
                 "rotation":0,
                 "type":"",
                 "visible":true,
                 "width":18,
                 "x":486,
                 "y":427
                }, 
                {
                 "gid":57,
                 "height":18,
                 "id":291,
                 "name":"",
                 "rotation":0,
                 "type":"",
                 "visible":true,
                 "width":18,
                 "x":485,
                 "y":157
                }, 
                {
                 "gid":57,
                 "height":18,
                 "id":292,
                 "name":"",
                 "rotation":0,
                 "type":"",
                 "visible":true,
                 "width":18,
                 "x":531,
                 "y":196
                }, 
                {
                 "gid":57,
                 "height":18,
                 "id":293,
                 "name":"",
                 "rotation":0,
                 "type":"",
                 "visible":true,
                 "width":18,
                 "x":512,
                 "y":194
                }, 
                {
                 "gid":57,
                 "height":18,
                 "id":294,
                 "name":"",
                 "rotation":0,
                 "type":"",
                 "visible":true,
                 "width":18,
                 "x":573,
                 "y":184
                }, 
                {
                 "gid":57,
                 "height":18,
                 "id":295,
                 "name":"",
                 "rotation":0,
                 "type":"",
                 "visible":true,
                 "width":18,
                 "x":569,
                 "y":155
                }, 
                {
                 "gid":57,
                 "height":18,
                 "id":296,
                 "name":"",
                 "rotation":0,
                 "type":"",
                 "visible":true,
                 "width":18,
                 "x":517,
                 "y":481
                }, 
                {
                 "gid":57,
                 "height":18,
                 "id":297,
                 "name":"",
                 "rotation":0,
                 "type":"",
                 "visible":true,
                 "width":18,
                 "x":595,
                 "y":473
                }, 
                {
                 "gid":58,
                 "height":18,
                 "id":298,
                 "name":"",
                 "rotation":0,
                 "type":"",
                 "visible":true,
                 "width":18,
                 "x":337,
                 "y":199
                }, 
                {
                 "gid":58,
                 "height":18,
                 "id":299,
                 "name":"",
                 "rotation":0,
                 "type":"",
                 "visible":true,
                 "width":18,
                 "x":661,
                 "y":164
                }, 
                {
                 "gid":58,
                 "height":18,
                 "id":300,
                 "name":"",
                 "rotation":0,
                 "type":"",
                 "visible":true,
                 "width":18,
                 "x":717,
                 "y":192
                }, 
                {
                 "gid":58,
                 "height":18,
                 "id":301,
                 "name":"",
                 "rotation":0,
                 "type":"",
                 "visible":true,
                 "width":18,
                 "x":442,
                 "y":169
                }, 
                {
                 "gid":58,
                 "height":18,
                 "id":302,
                 "name":"",
                 "rotation":0,
                 "type":"",
                 "visible":true,
                 "width":18,
                 "x":693,
                 "y":454
                }, 
                {
                 "gid":58,
                 "height":18,
                 "id":303,
                 "name":"",
                 "rotation":0,
                 "type":"",
                 "visible":true,
                 "width":18,
                 "x":501,
                 "y":426
                }, 
                {
                 "gid":58,
                 "height":18,
                 "id":304,
                 "name":"",
                 "rotation":0,
                 "type":"",
                 "visible":true,
                 "width":18,
                 "x":499,
                 "y":471
                }, 
                {
                 "gid":58,
                 "height":18,
                 "id":305,
                 "name":"",
                 "rotation":0,
                 "type":"",
                 "visible":true,
                 "width":18,
                 "x":529,
                 "y":483
                }, 
                {
                 "gid":58,
                 "height":18,
                 "id":306,
                 "name":"",
                 "rotation":0,
                 "type":"",
                 "visible":true,
                 "width":18,
                 "x":697,
                 "y":430
                }, 
                {
                 "gid":58,
                 "height":18,
                 "id":307,
                 "name":"",
                 "rotation":0,
                 "type":"",
                 "visible":true,
                 "width":18,
                 "x":553,
                 "y":162
                }, 
                {
                 "gid":65,
                 "height":98,
                 "id":308,
                 "name":"",
                 "rotation":-2.43938482130969,
                 "type":"",
                 "visible":true,
                 "width":120,
                 "x":720.139930808979,
                 "y":209.509342775949
                }, 
                {
                 "gid":63,
                 "height":98,
                 "id":309,
                 "name":"",
                 "rotation":-167.652559620221,
                 "type":"",
                 "visible":true,
                 "width":120,
                 "x":842.090256738653,
                 "y":412.96378411148
                }, 
                {
                 "gid":57,
                 "height":18,
                 "id":318,
                 "name":"",
                 "rotation":-17.566584158253,
                 "type":"",
                 "visible":true,
                 "width":18,
                 "x":171.636023630894,
                 "y":433.796626980766
                }, 
                {
                 "gid":58,
                 "height":18,
                 "id":319,
                 "name":"",
                 "rotation":0,
                 "type":"",
                 "visible":true,
                 "width":18,
                 "x":238,
                 "y":428.5
                }, 
                {
                 "gid":59,
                 "height":28,
                 "id":324,
                 "name":"",
                 "rotation":30.3157170554513,
                 "type":"",
                 "visible":true,
                 "width":29,
                 "x":278.082736189052,
                 "y":272.433181855768
                }, 
                {
                 "gid":57,
                 "height":18,
                 "id":325,
                 "name":"rock",
                 "rotation":0,
                 "type":"",
                 "visible":true,
                 "width":18,
                 "x":286.166666666667,
                 "y":226
                }, 
                {
                 "gid":58,
                 "height":18,
                 "id":326,
                 "name":"rock",
                 "rotation":-244.763736353096,
                 "type":"",
                 "visible":true,
                 "width":18,
                 "x":324.362817188357,
                 "y":219.021816512173
                }, 
                {
                 "gid":58,
                 "height":18,
                 "id":327,
                 "name":"",
                 "rotation":-3.94518622903757,
                 "type":"",
                 "visible":true,
                 "width":18,
                 "x":311.307212535399,
                 "y":274.264558447012
                }, 
                {
                 "gid":58,
                 "height":18,
                 "id":328,
                 "name":"",
                 "rotation":-134.563587921235,
                 "type":"",
                 "visible":true,
                 "width":18,
                 "x":344.394219517841,
                 "y":271.263612118199
                }, 
                {
                 "gid":58,
                 "height":18,
                 "id":329,
                 "name":"rock",
                 "rotation":0,
                 "type":"",
                 "visible":true,
                 "width":18,
                 "x":302.166666666667,
                 "y":233.5
                }, 
                {
                 "gid":58,
                 "height":18,
                 "id":358,
                 "name":"",
                 "rotation":-3.94518622903757,
                 "type":"",
                 "visible":true,
                 "width":18,
                 "x":319.973879202065,
                 "y":347.431225113678
                }, 
                {
                 "gid":58,
                 "height":18,
                 "id":359,
                 "name":"",
                 "rotation":-134.563587921235,
                 "type":"",
                 "visible":true,
                 "width":18,
                 "x":328.894219517841,
                 "y":346.263612118199
                }, 
                {
                 "gid":59,
                 "height":28,
                 "id":360,
                 "name":"",
                 "rotation":-117.992479023664,
                 "type":"",
                 "visible":true,
                 "width":29,
                 "x":313.001119324535,
                 "y":349.565987679237
                }, 
                {
                 "gid":58,
                 "height":18,
                 "id":361,
                 "name":"rock",
                 "rotation":-244.763736353096,
                 "type":"",
                 "visible":true,
                 "width":18,
                 "x":322.529483855023,
                 "y":363.021816512173
                }, 
                {
                 "gid":58,
                 "height":18,
                 "id":362,
                 "name":"rock",
                 "rotation":0,
                 "type":"",
                 "visible":true,
                 "width":18,
                 "x":301.833333333333,
                 "y":393.166666666667
                }, 
                {
                 "gid":57,
                 "height":18,
                 "id":363,
                 "name":"rock",
                 "rotation":0,
                 "type":"",
                 "visible":true,
                 "width":18,
                 "x":286.833333333333,
                 "y":402.666666666667
                }, 
                {
                 "gid":61,
                 "height":43,
                 "id":364,
                 "name":"",
                 "rotation":0,
                 "type":"",
                 "visible":true,
                 "width":45,
                 "x":275,
                 "y":328
                }, 
                {
                 "gid":57,
                 "height":18,
                 "id":367,
                 "name":"",
                 "rotation":0,
                 "type":"",
                 "visible":true,
                 "width":18,
                 "x":273,
                 "y":416.5
                }, 
                {
                 "gid":57,
                 "height":18,
                 "id":368,
                 "name":"",
                 "rotation":0,
                 "type":"",
                 "visible":true,
                 "width":18,
                 "x":273.5,
                 "y":210
                }, 
                {
                 "gid":57,
                 "height":18,
                 "id":369,
                 "name":"",
                 "rotation":43.7015060748886,
                 "type":"",
                 "visible":true,
                 "width":18,
                 "x":264.275346401114,
                 "y":281.288428133787
                }, 
                {
                 "gid":57,
                 "height":18,
                 "id":370,
                 "name":"",
                 "rotation":-67.7519400583194,
                 "type":"",
                 "visible":true,
                 "width":18,
                 "x":280.422424420515,
                 "y":338.237535423772
                }, 
                {
                 "gid":57,
                 "height":18,
                 "id":377,
                 "name":"",
                 "rotation":0,
                 "type":"",
                 "visible":true,
                 "width":18,
                 "x":907,
                 "y":471
                }, 
                {
                 "gid":58,
                 "height":18,
                 "id":378,
                 "name":"",
                 "rotation":0,
                 "type":"",
                 "visible":true,
                 "width":18,
                 "x":889,
                 "y":461
                }, 
                {
                 "gid":58,
                 "height":18,
                 "id":379,
                 "name":"",
                 "rotation":0,
                 "type":"",
                 "visible":true,
                 "width":18,
                 "x":919,
                 "y":473
                }, 
                {
                 "gid":60,
                 "height":28,
                 "id":380,
                 "name":"",
                 "rotation":0,
                 "type":"",
                 "visible":true,
                 "width":29,
                 "x":835.5,
                 "y":461
                }, 
                {
                 "gid":62,
                 "height":43,
                 "id":381,
                 "name":"",
                 "rotation":-309.835,
                 "type":"",
                 "visible":true,
                 "width":45,
                 "x":819.2885,
                 "y":156.9975
                }, 
                {
                 "gid":58,
                 "height":18,
                 "id":382,
                 "name":"",
                 "rotation":0,
                 "type":"",
                 "visible":true,
                 "width":18,
                 "x":868.7115,
                 "y":152.0025
                }, 
                {
                 "gid":59,
                 "height":28,
                 "id":383,
                 "name":"",
                 "rotation":0,
                 "type":"",
                 "visible":true,
                 "width":29,
                 "x":902.5,
                 "y":183.5
                }, 
                {
                 "gid":58,
                 "height":18,
                 "id":384,
                 "name":"",
                 "rotation":0,
                 "type":"",
                 "visible":true,
                 "width":18,
                 "x":900.5,
                 "y":158.5
                }],
         "opacity":1,
         "type":"objectgroup",
         "visible":true,
         "x":0,
         "y":0
        }, 
        {
         "draworder":"topdown",
         "name":"Collision",
         "objects":[
                {
                 "height":31.5,
                 "id":333,
                 "name":"start",
                 "properties":
                    {
                     "kind":"start"
                    },
                 "propertytypes":
                    {
                     "kind":"string"
                    },
                 "rotation":0,
                 "type":"",
                 "visible":true,
                 "width":30.5,
                 "x":0.5,
                 "y":288.5
                }, 
                {
                 "height":223,
                 "id":337,
                 "name":"finish",
                 "properties":
                    {
                     "collision_text":"Phew! Take a Breath.",
                     "kind":"finish"
                    },
                 "propertytypes":
                    {
                     "collision_text":"string",
                     "kind":"string"
                    },
                 "rotation":0,
                 "type":"",
                 "visible":true,
                 "width":126.5,
                 "x":673,
                 "y":191.5
                }, 
                {
                 "height":223,
                 "id":338,
                 "name":"message",
                 "properties":
                    {
                     "collision_text":"Avoid Rocks! They hurt.",
                     "kind":"message"
                    },
                 "propertytypes":
                    {
                     "collision_text":"string",
                     "kind":"string"
                    },
                 "rotation":0,
                 "type":"",
                 "visible":true,
                 "width":6,
                 "x":230,
                 "y":193
                }, 
                {
                 "height":0,
                 "id":347,
                 "name":"border",
                 "polyline":[
                        {
                         "x":0,
                         "y":0
                        }, 
                        {
                         "x":69.3333333333333,
                         "y":-30.6666666666666
                        }, 
                        {
                         "x":85.3333333333333,
                         "y":-75.3333333333333
                        }, 
                        {
                         "x":134,
                         "y":-83.3333333333333
                        }, 
                        {
                         "x":185.333333333333,
                         "y":-76.6666666666666
                        }, 
                        {
                         "x":232.666666666667,
                         "y":-85.3333333333333
                        }],
                 "properties":
                    {
                     "kind":"border",
                     "normal":"right"
                    },
                 "propertytypes":
                    {
                     "kind":"string",
                     "normal":"string"
                    },
                 "rotation":0,
                 "type":"",
                 "visible":true,
                 "width":0,
                 "x":0,
                 "y":278.666666666667
                }, 
                {
                 "height":0,
                 "id":348,
                 "name":"border",
                 "polyline":[
                        {
                         "x":0,
                         "y":0
                        }, 
                        {
                         "x":92,
                         "y":1.33333333333334
                        }, 
                        {
                         "x":186,
                         "y":1.33333333333334
                        }, 
                        {
                         "x":244.666666666667,
                         "y":0.666666666666686
                        }, 
                        {
                         "x":257.333333333333,
                         "y":8.66666666666669
                        }, 
                        {
                         "x":290.666666666667,
                         "y":-2
                        }, 
                        {
                         "x":306.666666666667,
                         "y":0.666666666666686
                        }, 
                        {
                         "x":369.333333333333,
                         "y":4
                        }],
                 "properties":
                    {
                     "kind":"border",
                     "normal":"right"
                    },
                 "propertytypes":
                    {
                     "kind":"string",
                     "normal":"string"
                    },
                 "rotation":0,
                 "type":"",
                 "visible":true,
                 "width":0,
                 "x":232.666666666667,
                 "y":193.333333333333
                }, 
                {
                 "height":0,
                 "id":349,
                 "name":"border",
                 "polyline":[
                        {
                         "x":0,
                         "y":0
                        }, 
                        {
                         "x":54.6666666666666,
                         "y":-5.33333333333334
                        }, 
                        {
                         "x":362.666666666667,
                         "y":-4.66666666666666
                        }],
                 "properties":
                    {
                     "kind":"border",
                     "normal":"right"
                    },
                 "propertytypes":
                    {
                     "kind":"string",
                     "normal":"string"
                    },
                 "rotation":0,
                 "type":"",
                 "visible":true,
                 "width":0,
                 "x":602,
                 "y":196.666666666667
                }, 
                {
                 "height":0,
                 "id":350,
                 "name":"border",
                 "polyline":[
                        {
                         "x":230,
                         "y":1
                        }, 
                        {
                         "x":-70.6666666666666,
                         "y":2
                        }, 
                        {
                         "x":-130.666666666667,
                         "y":-8
                        }, 
                        {
                         "x":-174.666666666667,
                         "y":-1.33333333333337
                        }, 
                        {
                         "x":-210.666666666667,
                         "y":-3.33333333333337
                        }, 
                        {
                         "x":-242.666666666667,
                         "y":-4.66666666666669
                        }, 
                        {
                         "x":-264,
                         "y":-8
                        }, 
                        {
                         "x":-294.666666666667,
                         "y":-5.33333333333337
                        }, 
                        {
                         "x":-401.333333333333,
                         "y":-1.33333333333337
                        }],
                 "properties":
                    {
                     "kind":"border",
                     "normal":"right"
                    },
                 "propertytypes":
                    {
                     "kind":"string",
                     "normal":"string"
                    },
                 "rotation":0,
                 "type":"",
                 "visible":true,
                 "width":0,
                 "x":734.666666666667,
                 "y":414
                }, 
                {
                 "height":0,
                 "id":351,
                 "name":"border",
                 "polyline":[
                        {
                         "x":0,
                         "y":0
                        }, 
                        {
                         "x":-78,
                         "y":0
                        }, 
                        {
                         "x":-105.333333333333,
                         "y":-11.3333333333333
                        }, 
                        {
                         "x":-138,
                         "y":0
                        }, 
                        {
                         "x":-158,
                         "y":0
                        }, 
                        {
                         "x":-168,
                         "y":-4
                        }, 
                        {
                         "x":-193.333333333333,
                         "y":-4.66666666666663
                        }, 
                        {
                         "x":-211.333333333333,
                         "y":0.666666666666686
                        }, 
                        {
                         "x":-235.333333333333,
                         "y":-9.33333333333331
                        }, 
                        {
                         "x":-249.333333333333,
                         "y":-34.6666666666666
                        }, 
                        {
                         "x":-284,
                         "y":-74
                        }, 
                        {
                         "x":-333.333333333333,
                         "y":-60
                        }, 
                        {
                         "x":-333.333333333333,
                         "y":-93.3333333333333
                        }],
                 "properties":
                    {
                     "kind":"border",
                     "normal":"right"
                    },
                 "propertytypes":
                    {
                     "kind":"string",
                     "normal":"string"
                    },
                 "rotation":0,
                 "type":"",
                 "visible":true,
                 "width":0,
                 "x":333.333333333333,
                 "y":414.666666666667
                }, 
                {
                 "height":223,
                 "id":352,
                 "name":"message",
                 "properties":
                    {
                     "collision_text":"Currents Will Push You Around!",
                     "kind":"checkpoint"
                    },
                 "propertytypes":
                    {
                     "collision_text":"string",
                     "kind":"string"
                    },
                 "rotation":0,
                 "type":"",
                 "visible":true,
                 "width":6,
                 "x":380,
                 "y":190.5
                }, 
                {
                 "height":223,
                 "id":353,
                 "name":"message",
                 "properties":
                    {
                     "collision_text":"Use \"W\" and \"A\" to Steer.",
                     "kind":"message"
                    },
                 "propertytypes":
                    {
                     "collision_text":"string",
                     "kind":"string"
                    },
                 "rotation":0,
                 "type":"",
                 "visible":true,
                 "width":6,
                 "x":110,
                 "y":197.5
                }, 
                {
                 "height":0,
                 "id":372,
                 "name":"border",
                 "polyline":[
                        {
                         "x":0,
                         "y":0
                        }, 
                        {
                         "x":-2.66666666666663,
                         "y":12.6666666666667
                        }, 
                        {
                         "x":-37.6666666666666,
                         "y":-1.33333333333331
                        }, 
                        {
                         "x":-60.6666666666666,
                         "y":-30.6666666666667
                        }, 
                        {
                         "x":-42.3333333333333,
                         "y":-29.6666666666667
                        }, 
                        {
                         "x":-29.6666666666666,
                         "y":-13.3333333333333
                        }, 
                        {
                         "x":-13.3333333333333,
                         "y":-2
                        }, 
                        {
                         "x":0.333333333333371,
                         "y":-0.666666666666657
                        }],
                 "properties":
                    {
                     "kind":"border"
                    },
                 "propertytypes":
                    {
                     "kind":"string"
                    },
                 "rotation":0,
                 "type":"",
                 "visible":true,
                 "width":0,
                 "x":330.666666666667,
                 "y":224.333333333333
                }, 
                {
                 "height":0,
                 "id":373,
                 "name":"border",
                 "polyline":[
                        {
                         "x":0,
                         "y":0
                        }, 
                        {
                         "x":-4.66666666666669,
                         "y":8.66666666666663
                        }, 
                        {
                         "x":-14.3333333333333,
                         "y":15
                        }, 
                        {
                         "x":-40.3333333333333,
                         "y":21
                        }, 
                        {
                         "x":-49.6666666666667,
                         "y":20
                        }, 
                        {
                         "x":-68,
                         "y":-9.66666666666669
                        }, 
                        {
                         "x":-66.3333333333333,
                         "y":-52.3333333333334
                        }, 
                        {
                         "x":-63.3333333333333,
                         "y":-59.3333333333334
                        }, 
                        {
                         "x":-38.6666666666667,
                         "y":-82.3333333333333
                        }, 
                        {
                         "x":-0.333333333333314,
                         "y":-70.6666666666667
                        }, 
                        {
                         "x":1.33333333333331,
                         "y":-60.6666666666667
                        }, 
                        {
                         "x":-0.333333333333314,
                         "y":-1
                        }],
                 "properties":
                    {
                     "kind":"border"
                    },
                 "propertytypes":
                    {
                     "kind":"string"
                    },
                 "rotation":0,
                 "type":"",
                 "visible":true,
                 "width":0,
                 "x":335.333333333333,
                 "y":335
                }, 
                {
                 "height":0,
                 "id":374,
                 "name":"border",
                 "polyline":[
                        {
                         "x":0,
                         "y":0
                        }, 
                        {
                         "x":26,
                         "y":-29.6666666666667
                        }, 
                        {
                         "x":60.3333333333333,
                         "y":-47.3333333333334
                        }, 
                        {
                         "x":65,
                         "y":-38.3333333333334
                        }, 
                        {
                         "x":31.3333333333333,
                         "y":-14.6666666666667
                        }, 
                        {
                         "x":17,
                         "y":-0.666666666666686
                        }, 
                        {
                         "x":0.333333333333314,
                         "y":-0.333333333333371
                        }],
                 "properties":
                    {
                     "kind":"border"
                    },
                 "propertytypes":
                    {
                     "kind":"string"
                    },
                 "rotation":0,
                 "type":"",
                 "visible":true,
                 "width":0,
                 "x":268.333333333333,
                 "y":415
                }],
         "opacity":1,
         "type":"objectgroup",
         "visible":true,
         "x":0,
         "y":0
        }, 
        {
         "compression":"zlib",
         "data":"eJzt0bcNgEAQBdEjwtcA9N8FpgZ8DficCS66\/FZI7EhPG\/5gjdG0\/9ZhxYM8kNttseBGJrjbYMaF1O6610c1JpxI7I57fTTiQMxGZXfc66MBOyI2SsH\/9tgQslkI7mral3sBFH8QxQ==",
         "encoding":"base64",
         "height":19,
         "name":"velocity",
         "opacity":1,
         "type":"tilelayer",
         "visible":true,
         "width":30,
         "x":0,
         "y":0
        }],
 "nextobjectid":385,
 "orientation":"orthogonal",
 "renderorder":"right-down",
 "tiledversion":"1.1.4",
 "tileheight":32,
 "tilesets":[
        {
         "firstgid":1,
         "source":"dummy_seed_1.tsx"
        }, 
        {
         "firstgid":57,
         "source":"meteors_tiny.tsx"
        }, 
        {
         "firstgid":59,
         "source":"meteors_small.tsx"
        }, 
        {
         "firstgid":61,
         "source":"meteors_med.tsx"
        }, 
        {
         "firstgid":63,
         "source":"meteors_big.tsx"
        }, 
        {
         "firstgid":67,
         "source":"swirl.tsx"
        }, 
        {
         "firstgid":68,
         "source":"gator.tsx"
        }, 
        {
         "firstgid":72,
         "source":"branch1.tsx"
        }, 
        {
         "firstgid":73,
         "source":"branch2.tsx"
        }, 
        {
         "firstgid":74,
         "source":"velocities.tsx"
        }, 
        {
         "firstgid":434,
         "source":"kayak.tsx"
        }],
 "tilewidth":32,
 "type":"map",
 "version":1,
 "width":30
}