{ "height":19,
 "infinite":false,
 "layers":[
        {
         "compression":"zlib",
         "data":"eJzTZGBg0KQxxgZobedgs5cUMGovfewl132DyV5ahddA2UuKuwarvdR033CyV2OA7KV2Phq1d+jZCwCuujgO",
         "encoding":"base64",
         "height":19,
         "name":"Background",
         "opacity":1,
         "type":"tilelayer",
         "visible":false,
         "width":30,
         "x":0,
         "y":0
        }, 
        {
         "compression":"zlib",
         "data":"eJx7xMjA8BiInwDxUyAGgUdEilECXgHNeA3EbxhJFxsFowAXMB3Fo3gUU4xHwSgYTgAAmDo+fQ==",
         "encoding":"base64",
         "height":19,
         "name":"Water",
         "opacity":1,
         "type":"tilelayer",
         "visible":true,
         "width":30,
         "x":0,
         "y":0
        }, 
        {
         "compression":"zlib",
         "data":"eJxjYBgFo2AUjIJRMApGwSgYngAACOgAAQ==",
         "encoding":"base64",
         "height":19,
         "name":"Interactive",
         "opacity":1,
         "type":"tilelayer",
         "visible":false,
         "width":30,
         "x":0,
         "y":0
        }, 
        {
         "compression":"zlib",
         "data":"eJxjYBgFo2AUjIJRMApGwSgYngAACOgAAQ==",
         "encoding":"base64",
         "height":19,
         "name":"Over",
         "opacity":1,
         "type":"tilelayer",
         "visible":false,
         "width":30,
         "x":0,
         "y":0
        }, 
        {
         "draworder":"topdown",
         "name":"Rock Borders",
         "objects":[
                {
                 "gid":64,
                 "height":98,
                 "id":249,
                 "name":"",
                 "rotation":0,
                 "type":"",
                 "visible":true,
                 "width":120,
                 "x":-36,
                 "y":280
                }, 
                {
                 "gid":66,
                 "height":98,
                 "id":250,
                 "name":"",
                 "rotation":0,
                 "type":"",
                 "visible":true,
                 "width":120,
                 "x":-24,
                 "y":439
                }, 
                {
                 "gid":61,
                 "height":43,
                 "id":251,
                 "name":"",
                 "rotation":-79.8033581725976,
                 "type":"",
                 "visible":true,
                 "width":45,
                 "x":207.677319945465,
                 "y":209.450716357957
                }, 
                {
                 "gid":61,
                 "height":43,
                 "id":252,
                 "name":"",
                 "rotation":-1.05057086961794,
                 "type":"",
                 "visible":true,
                 "width":45,
                 "x":130.397982416842,
                 "y":451.408920985612
                }, 
                {
                 "gid":61,
                 "height":43,
                 "id":253,
                 "name":"",
                 "rotation":0.0764452908802541,
                 "type":"",
                 "visible":true,
                 "width":45,
                 "x":269.971334261672,
                 "y":456.969960876785
                }, 
                {
                 "gid":61,
                 "height":43,
                 "id":254,
                 "name":"",
                 "rotation":-27.6303457917562,
                 "type":"",
                 "visible":true,
                 "width":45,
                 "x":423.536897926864,
                 "y":462.982818675973
                }, 
                {
                 "gid":61,
                 "height":43,
                 "id":255,
                 "name":"",
                 "rotation":-53.1820849495172,
                 "type":"",
                 "visible":true,
                 "width":45,
                 "x":478.228033037338,
                 "y":459.396630393499
                }, 
                {
                 "gid":62,
                 "height":43,
                 "id":256,
                 "name":"",
                 "rotation":295.436216380417,
                 "type":"",
                 "visible":true,
                 "width":45,
                 "x":233.251989736484,
                 "y":455.053319545856
                }, 
                {
                 "gid":62,
                 "height":43,
                 "id":257,
                 "name":"",
                 "rotation":0,
                 "type":"",
                 "visible":true,
                 "width":45,
                 "x":68,
                 "y":446
                }, 
                {
                 "gid":62,
                 "height":43,
                 "id":258,
                 "name":"",
                 "rotation":-47.6200032198377,
                 "type":"",
                 "visible":true,
                 "width":45,
                 "x":345.215848205388,
                 "y":462.612498474839
                }, 
                {
                 "gid":62,
                 "height":43,
                 "id":259,
                 "name":"",
                 "rotation":-300.834615249232,
                 "type":"",
                 "visible":true,
                 "width":45,
                 "x":265.506378104994,
                 "y":168.200443046799
                }, 
                {
                 "gid":62,
                 "height":43,
                 "id":260,
                 "name":"",
                 "rotation":-309.512566340546,
                 "type":"",
                 "visible":true,
                 "width":45,
                 "x":66.597503844032,
                 "y":183.820906180812
                }, 
                {
                 "gid":62,
                 "height":43,
                 "id":261,
                 "name":"",
                 "rotation":0,
                 "type":"",
                 "visible":true,
                 "width":45,
                 "x":205,
                 "y":198
                }, 
                {
                 "gid":62,
                 "height":43,
                 "id":262,
                 "name":"",
                 "rotation":0,
                 "type":"",
                 "visible":true,
                 "width":45,
                 "x":356,
                 "y":197
                }, 
                {
                 "gid":61,
                 "height":43,
                 "id":263,
                 "name":"",
                 "rotation":0,
                 "type":"",
                 "visible":true,
                 "width":45,
                 "x":397,
                 "y":197
                }, 
                {
                 "gid":62,
                 "height":43,
                 "id":264,
                 "name":"",
                 "rotation":19.657720471078,
                 "type":"",
                 "visible":true,
                 "width":45,
                 "x":464.078712220992,
                 "y":195.177949399757
                }, 
                {
                 "gid":61,
                 "height":43,
                 "id":265,
                 "name":"",
                 "rotation":22.3498678706688,
                 "type":"",
                 "visible":true,
                 "width":45,
                 "x":576.514602618177,
                 "y":439.829021962103
                }, 
                {
                 "gid":62,
                 "height":43,
                 "id":266,
                 "name":"",
                 "rotation":-43.0067915163658,
                 "type":"",
                 "visible":true,
                 "width":45,
                 "x":527.711189218363,
                 "y":462.569279939958
                }, 
                {
                 "gid":61,
                 "height":43,
                 "id":267,
                 "name":"",
                 "rotation":-83.8309303324372,
                 "type":"",
                 "visible":true,
                 "width":45,
                 "x":594.457586221935,
                 "y":492.180152443571
                }, 
                {
                 "gid":61,
                 "height":43,
                 "id":268,
                 "name":"",
                 "rotation":-34.9020351851169,
                 "type":"",
                 "visible":true,
                 "width":45,
                 "x":599.348802689147,
                 "y":210.006765997774
                }, 
                {
                 "gid":62,
                 "height":43,
                 "id":269,
                 "name":"",
                 "rotation":-309.835028183111,
                 "type":"",
                 "visible":true,
                 "width":45,
                 "x":611.577287347665,
                 "y":168.994883422607
                }, 
                {
                 "gid":61,
                 "height":43,
                 "id":270,
                 "name":"",
                 "rotation":0,
                 "type":"",
                 "visible":true,
                 "width":45,
                 "x":627,
                 "y":455
                }, 
                {
                 "gid":59,
                 "height":28,
                 "id":271,
                 "name":"",
                 "rotation":0,
                 "type":"",
                 "visible":true,
                 "width":29,
                 "x":117,
                 "y":199
                }, 
                {
                 "gid":59,
                 "height":28,
                 "id":272,
                 "name":"",
                 "rotation":0,
                 "type":"",
                 "visible":true,
                 "width":29,
                 "x":361,
                 "y":438
                }, 
                {
                 "gid":59,
                 "height":28,
                 "id":273,
                 "name":"",
                 "rotation":0,
                 "type":"",
                 "visible":true,
                 "width":29,
                 "x":311,
                 "y":198
                }, 
                {
                 "gid":59,
                 "height":28,
                 "id":274,
                 "name":"",
                 "rotation":0,
                 "type":"",
                 "visible":true,
                 "width":29,
                 "x":699,
                 "y":189
                }, 
                {
                 "gid":59,
                 "height":28,
                 "id":275,
                 "name":"",
                 "rotation":0,
                 "type":"",
                 "visible":true,
                 "width":29,
                 "x":444,
                 "y":194
                }, 
                {
                 "gid":59,
                 "height":28,
                 "id":276,
                 "name":"",
                 "rotation":0,
                 "type":"",
                 "visible":true,
                 "width":29,
                 "x":250,
                 "y":441
                }, 
                {
                 "gid":59,
                 "height":28,
                 "id":277,
                 "name":"",
                 "rotation":0,
                 "type":"",
                 "visible":true,
                 "width":29,
                 "x":553,
                 "y":440
                }, 
                {
                 "gid":59,
                 "height":28,
                 "id":278,
                 "name":"",
                 "rotation":0,
                 "type":"",
                 "visible":true,
                 "width":29,
                 "x":389,
                 "y":444
                }, 
                {
                 "gid":60,
                 "height":28,
                 "id":279,
                 "name":"",
                 "rotation":0,
                 "type":"",
                 "visible":true,
                 "width":29,
                 "x":254,
                 "y":198
                }, 
                {
                 "gid":60,
                 "height":28,
                 "id":280,
                 "name":"",
                 "rotation":0,
                 "type":"",
                 "visible":true,
                 "width":29,
                 "x":675,
                 "y":190
                }, 
                {
                 "gid":60,
                 "height":28,
                 "id":281,
                 "name":"",
                 "rotation":0,
                 "type":"",
                 "visible":true,
                 "width":29,
                 "x":506,
                 "y":177
                }, 
                {
                 "gid":60,
                 "height":28,
                 "id":282,
                 "name":"",
                 "rotation":0,
                 "type":"",
                 "visible":true,
                 "width":29,
                 "x":548,
                 "y":195
                }, 
                {
                 "gid":60,
                 "height":28,
                 "id":283,
                 "name":"",
                 "rotation":0,
                 "type":"",
                 "visible":true,
                 "width":29,
                 "x":530,
                 "y":160
                }, 
                {
                 "gid":60,
                 "height":28,
                 "id":284,
                 "name":"",
                 "rotation":0,
                 "type":"",
                 "visible":true,
                 "width":29,
                 "x":675,
                 "y":440
                }, 
                {
                 "gid":57,
                 "height":18,
                 "id":286,
                 "name":"",
                 "rotation":0,
                 "type":"",
                 "visible":true,
                 "width":18,
                 "x":142,
                 "y":196
                }, 
                {
                 "gid":57,
                 "height":18,
                 "id":287,
                 "name":"",
                 "rotation":0,
                 "type":"",
                 "visible":true,
                 "width":18,
                 "x":308,
                 "y":434
                }, 
                {
                 "gid":57,
                 "height":18,
                 "id":288,
                 "name":"",
                 "rotation":0,
                 "type":"",
                 "visible":true,
                 "width":18,
                 "x":112,
                 "y":433
                }, 
                {
                 "gid":57,
                 "height":18,
                 "id":289,
                 "name":"",
                 "rotation":0,
                 "type":"",
                 "visible":true,
                 "width":18,
                 "x":188,
                 "y":432
                }, 
                {
                 "gid":57,
                 "height":18,
                 "id":290,
                 "name":"",
                 "rotation":0,
                 "type":"",
                 "visible":true,
                 "width":18,
                 "x":486,
                 "y":427
                }, 
                {
                 "gid":57,
                 "height":18,
                 "id":291,
                 "name":"",
                 "rotation":0,
                 "type":"",
                 "visible":true,
                 "width":18,
                 "x":485,
                 "y":157
                }, 
                {
                 "gid":57,
                 "height":18,
                 "id":292,
                 "name":"",
                 "rotation":0,
                 "type":"",
                 "visible":true,
                 "width":18,
                 "x":531,
                 "y":196
                }, 
                {
                 "gid":57,
                 "height":18,
                 "id":293,
                 "name":"",
                 "rotation":0,
                 "type":"",
                 "visible":true,
                 "width":18,
                 "x":512,
                 "y":194
                }, 
                {
                 "gid":57,
                 "height":18,
                 "id":294,
                 "name":"",
                 "rotation":0,
                 "type":"",
                 "visible":true,
                 "width":18,
                 "x":573,
                 "y":184
                }, 
                {
                 "gid":57,
                 "height":18,
                 "id":295,
                 "name":"",
                 "rotation":0,
                 "type":"",
                 "visible":true,
                 "width":18,
                 "x":569,
                 "y":155
                }, 
                {
                 "gid":57,
                 "height":18,
                 "id":296,
                 "name":"",
                 "rotation":0,
                 "type":"",
                 "visible":true,
                 "width":18,
                 "x":517,
                 "y":481
                }, 
                {
                 "gid":57,
                 "height":18,
                 "id":297,
                 "name":"",
                 "rotation":0,
                 "type":"",
                 "visible":true,
                 "width":18,
                 "x":595,
                 "y":473
                }, 
                {
                 "gid":58,
                 "height":18,
                 "id":298,
                 "name":"",
                 "rotation":0,
                 "type":"",
                 "visible":true,
                 "width":18,
                 "x":337,
                 "y":199
                }, 
                {
                 "gid":58,
                 "height":18,
                 "id":299,
                 "name":"",
                 "rotation":0,
                 "type":"",
                 "visible":true,
                 "width":18,
                 "x":661,
                 "y":164
                }, 
                {
                 "gid":58,
                 "height":18,
                 "id":300,
                 "name":"",
                 "rotation":0,
                 "type":"",
                 "visible":true,
                 "width":18,
                 "x":717,
                 "y":192
                }, 
                {
                 "gid":58,
                 "height":18,
                 "id":301,
                 "name":"",
                 "rotation":0,
                 "type":"",
                 "visible":true,
                 "width":18,
                 "x":442,
                 "y":169
                }, 
                {
                 "gid":58,
                 "height":18,
                 "id":302,
                 "name":"",
                 "rotation":0,
                 "type":"",
                 "visible":true,
                 "width":18,
                 "x":693,
                 "y":454
                }, 
                {
                 "gid":58,
                 "height":18,
                 "id":303,
                 "name":"",
                 "rotation":0,
                 "type":"",
                 "visible":true,
                 "width":18,
                 "x":501,
                 "y":426
                }, 
                {
                 "gid":58,
                 "height":18,
                 "id":304,
                 "name":"",
                 "rotation":0,
                 "type":"",
                 "visible":true,
                 "width":18,
                 "x":499,
                 "y":471
                }, 
                {
                 "gid":58,
                 "height":18,
                 "id":305,
                 "name":"",
                 "rotation":0,
                 "type":"",
                 "visible":true,
                 "width":18,
                 "x":529,
                 "y":483
                }, 
                {
                 "gid":58,
                 "height":18,
                 "id":306,
                 "name":"",
                 "rotation":0,
                 "type":"",
                 "visible":true,
                 "width":18,
                 "x":697,
                 "y":430
                }, 
                {
                 "gid":58,
                 "height":18,
                 "id":307,
                 "name":"",
                 "rotation":0,
                 "type":"",
                 "visible":true,
                 "width":18,
                 "x":553,
                 "y":162
                }, 
                {
                 "gid":65,
                 "height":98,
                 "id":308,
                 "name":"",
                 "rotation":-2.43938482130969,
                 "type":"",
                 "visible":true,
                 "width":120,
                 "x":720.139930808979,
                 "y":209.509342775949
                }, 
                {
                 "gid":63,
                 "height":98,
                 "id":309,
                 "name":"",
                 "rotation":-167.652559620221,
                 "type":"",
                 "visible":true,
                 "width":120,
                 "x":842.090256738653,
                 "y":412.96378411148
                }, 
                {
                 "gid":57,
                 "height":18,
                 "id":318,
                 "name":"",
                 "rotation":-17.566584158253,
                 "type":"",
                 "visible":true,
                 "width":18,
                 "x":171.636023630894,
                 "y":433.796626980766
                }, 
                {
                 "gid":58,
                 "height":18,
                 "id":319,
                 "name":"",
                 "rotation":0,
                 "type":"",
                 "visible":true,
                 "width":18,
                 "x":238,
                 "y":428.5
                }, 
                {
                 "gid":67,
                 "height":50,
                 "id":384,
                 "name":"",
                 "rotation":60,
                 "type":"",
                 "visible":true,
                 "width":50,
                 "x":163,
                 "y":291.666666666667
                }, 
                {
                 "gid":67,
                 "height":50,
                 "id":385,
                 "name":"",
                 "rotation":0,
                 "type":"",
                 "visible":true,
                 "width":50,
                 "x":160.333333333333,
                 "y":275.666666666667
                }, 
                {
                 "gid":67,
                 "height":50,
                 "id":386,
                 "name":"",
                 "rotation":210,
                 "type":"",
                 "visible":true,
                 "width":50,
                 "x":227.666666666666,
                 "y":343
                }, 
                {
                 "gid":67,
                 "height":50,
                 "id":387,
                 "name":"",
                 "rotation":90,
                 "type":"",
                 "visible":true,
                 "width":50,
                 "x":317.666666666667,
                 "y":202.333333333333
                }, 
                {
                 "gid":67,
                 "height":50,
                 "id":388,
                 "name":"",
                 "rotation":330,
                 "type":"",
                 "visible":true,
                 "width":50,
                 "x":286.333333333333,
                 "y":398.333333333334
                }, 
                {
                 "gid":67,
                 "height":50,
                 "id":389,
                 "name":"",
                 "rotation":150,
                 "type":"",
                 "visible":true,
                 "width":50,
                 "x":345,
                 "y":291
                }, 
                {
                 "gid":67,
                 "height":50,
                 "id":390,
                 "name":"",
                 "rotation":240,
                 "type":"",
                 "visible":true,
                 "width":50,
                 "x":349.666666666667,
                 "y":285.666666666667
                }],
         "opacity":1,
         "type":"objectgroup",
         "visible":true,
         "x":0,
         "y":0
        }, 
        {
         "draworder":"topdown",
         "name":"Collision",
         "objects":[
                {
                 "height":31.5,
                 "id":333,
                 "name":"start",
                 "properties":
                    {
                     "kind":"start"
                    },
                 "propertytypes":
                    {
                     "kind":"string"
                    },
                 "rotation":0,
                 "type":"",
                 "visible":true,
                 "width":30.5,
                 "x":0.5,
                 "y":288.5
                }, 
                {
                 "height":223,
                 "id":337,
                 "name":"finish",
                 "properties":
                    {
                     "collision_text":"Phew! Take a Breath.",
                     "kind":"finish"
                    },
                 "propertytypes":
                    {
                     "collision_text":"string",
                     "kind":"string"
                    },
                 "rotation":0,
                 "type":"",
                 "visible":true,
                 "width":126.5,
                 "x":673,
                 "y":191.5
                }, 
                {
                 "height":0,
                 "id":347,
                 "name":"border",
                 "polyline":[
                        {
                         "x":0,
                         "y":0
                        }, 
                        {
                         "x":69.3333333333333,
                         "y":-30.6666666666666
                        }, 
                        {
                         "x":85.3333333333333,
                         "y":-75.3333333333333
                        }, 
                        {
                         "x":134,
                         "y":-83.3333333333333
                        }, 
                        {
                         "x":185.333333333333,
                         "y":-76.6666666666666
                        }, 
                        {
                         "x":232.666666666667,
                         "y":-85.3333333333333
                        }],
                 "properties":
                    {
                     "kind":"border",
                     "normal":"right"
                    },
                 "propertytypes":
                    {
                     "kind":"string",
                     "normal":"string"
                    },
                 "rotation":0,
                 "type":"",
                 "visible":true,
                 "width":0,
                 "x":0,
                 "y":278.666666666667
                }, 
                {
                 "height":0,
                 "id":348,
                 "name":"border",
                 "polyline":[
                        {
                         "x":0,
                         "y":0
                        }, 
                        {
                         "x":92,
                         "y":1.33333333333334
                        }, 
                        {
                         "x":186,
                         "y":1.33333333333334
                        }, 
                        {
                         "x":244.666666666667,
                         "y":0.666666666666686
                        }, 
                        {
                         "x":257.333333333333,
                         "y":8.66666666666669
                        }, 
                        {
                         "x":290.666666666667,
                         "y":-2
                        }, 
                        {
                         "x":306.666666666667,
                         "y":0.666666666666686
                        }, 
                        {
                         "x":369.333333333333,
                         "y":4
                        }],
                 "properties":
                    {
                     "kind":"border",
                     "normal":"right"
                    },
                 "propertytypes":
                    {
                     "kind":"string",
                     "normal":"string"
                    },
                 "rotation":0,
                 "type":"",
                 "visible":true,
                 "width":0,
                 "x":232.666666666667,
                 "y":193.333333333333
                }, 
                {
                 "height":0,
                 "id":349,
                 "name":"border",
                 "polyline":[
                        {
                         "x":0,
                         "y":0
                        }, 
                        {
                         "x":54.6666666666666,
                         "y":-5.33333333333334
                        }, 
                        {
                         "x":361.333333333334,
                         "y":-5.99999999999997
                        }],
                 "properties":
                    {
                     "kind":"border",
                     "normal":"right"
                    },
                 "propertytypes":
                    {
                     "kind":"string",
                     "normal":"string"
                    },
                 "rotation":0,
                 "type":"",
                 "visible":true,
                 "width":0,
                 "x":602,
                 "y":196.666666666667
                }, 
                {
                 "height":0,
                 "id":350,
                 "name":"border",
                 "polyline":[
                        {
                         "x":230.666666666667,
                         "y":4
                        }, 
                        {
                         "x":-70.6666666666666,
                         "y":2
                        }, 
                        {
                         "x":-130.666666666667,
                         "y":-8
                        }, 
                        {
                         "x":-174.666666666667,
                         "y":-1.33333333333337
                        }, 
                        {
                         "x":-210.666666666667,
                         "y":-3.33333333333337
                        }, 
                        {
                         "x":-242.666666666667,
                         "y":-4.66666666666669
                        }, 
                        {
                         "x":-264,
                         "y":-8
                        }, 
                        {
                         "x":-294.666666666667,
                         "y":-5.33333333333337
                        }, 
                        {
                         "x":-401.333333333333,
                         "y":-1.33333333333337
                        }],
                 "properties":
                    {
                     "kind":"border",
                     "normal":"right"
                    },
                 "propertytypes":
                    {
                     "kind":"string",
                     "normal":"string"
                    },
                 "rotation":0,
                 "type":"",
                 "visible":true,
                 "width":0,
                 "x":734.666666666667,
                 "y":414
                }, 
                {
                 "height":0,
                 "id":351,
                 "name":"border",
                 "polyline":[
                        {
                         "x":0,
                         "y":0
                        }, 
                        {
                         "x":-78,
                         "y":0
                        }, 
                        {
                         "x":-105.333333333333,
                         "y":-11.3333333333333
                        }, 
                        {
                         "x":-138,
                         "y":0
                        }, 
                        {
                         "x":-158,
                         "y":0
                        }, 
                        {
                         "x":-168,
                         "y":-4
                        }, 
                        {
                         "x":-193.333333333333,
                         "y":-4.66666666666663
                        }, 
                        {
                         "x":-211.333333333333,
                         "y":0.666666666666686
                        }, 
                        {
                         "x":-235.333333333333,
                         "y":-9.33333333333331
                        }, 
                        {
                         "x":-249.333333333333,
                         "y":-34.6666666666666
                        }, 
                        {
                         "x":-284,
                         "y":-74
                        }, 
                        {
                         "x":-333.333333333333,
                         "y":-60
                        }, 
                        {
                         "x":-333.333333333333,
                         "y":-93.3333333333333
                        }],
                 "properties":
                    {
                     "kind":"border",
                     "normal":"right"
                    },
                 "propertytypes":
                    {
                     "kind":"string",
                     "normal":"string"
                    },
                 "rotation":0,
                 "type":"",
                 "visible":true,
                 "width":0,
                 "x":333.333333333333,
                 "y":414.666666666667
                }, 
                {
                 "height":223,
                 "id":353,
                 "name":"message",
                 "properties":
                    {
                     "collision_text":"Whirlpools Disrupt the Flow.",
                     "kind":"message"
                    },
                 "propertytypes":
                    {
                     "collision_text":"string",
                     "kind":"string"
                    },
                 "rotation":0,
                 "type":"",
                 "visible":true,
                 "width":6,
                 "x":96.3333333333333,
                 "y":192.5
                }, 
                {
                 "gid":57,
                 "height":18,
                 "id":391,
                 "name":"",
                 "rotation":0,
                 "type":"",
                 "visible":true,
                 "width":18,
                 "x":908.666666666667,
                 "y":470.333333333333
                }, 
                {
                 "gid":58,
                 "height":18,
                 "id":392,
                 "name":"",
                 "rotation":0,
                 "type":"",
                 "visible":true,
                 "width":18,
                 "x":890.666666666667,
                 "y":460.333333333333
                }, 
                {
                 "gid":58,
                 "height":18,
                 "id":393,
                 "name":"",
                 "rotation":0,
                 "type":"",
                 "visible":true,
                 "width":18,
                 "x":920.666666666667,
                 "y":472.333333333333
                }, 
                {
                 "gid":60,
                 "height":28,
                 "id":394,
                 "name":"",
                 "rotation":0,
                 "type":"",
                 "visible":true,
                 "width":29,
                 "x":836.166666666667,
                 "y":461.333333333333
                }, 
                {
                 "gid":62,
                 "height":43,
                 "id":395,
                 "name":"",
                 "rotation":-309.835,
                 "type":"",
                 "visible":true,
                 "width":45,
                 "x":819.621833333333,
                 "y":160.330833333333
                }, 
                {
                 "gid":58,
                 "height":18,
                 "id":396,
                 "name":"",
                 "rotation":0,
                 "type":"",
                 "visible":true,
                 "width":18,
                 "x":869.044833333333,
                 "y":155.335833333333
                }, 
                {
                 "height":223,
                 "id":397,
                 "name":"message",
                 "properties":
                    {
                     "collision_text":"Recover Your Canoe Quickly!",
                     "kind":"message"
                    },
                 "propertytypes":
                    {
                     "collision_text":"string",
                     "kind":"string"
                    },
                 "rotation":0,
                 "type":"",
                 "visible":true,
                 "width":6,
                 "x":199,
                 "y":191.833333333333
                }, 
                {
                 "gid":59,
                 "height":28,
                 "id":398,
                 "name":"",
                 "rotation":0,
                 "type":"",
                 "visible":true,
                 "width":29,
                 "x":899.5,
                 "y":185.5
                }, 
                {
                 "gid":58,
                 "height":18,
                 "id":399,
                 "name":"",
                 "rotation":0,
                 "type":"",
                 "visible":true,
                 "width":18,
                 "x":897.5,
                 "y":160.5
                }],
         "opacity":1,
         "type":"objectgroup",
         "visible":true,
         "x":0,
         "y":0
        }, 
        {
         "compression":"zlib",
         "data":"eJzt0bcNgEAQBdEjwtcA9N8FpgZ8DficCS66\/FZI7EhPG\/5gjdG0\/9ZhxYM8kNttseBGJrjbYMaF1O6610c1JpxI7I57fTTiQMxGZXfc66MBOyI2SsH\/9tgQslkI7mral3sBFH8QxQ==",
         "encoding":"base64",
         "height":19,
         "name":"velocity",
         "opacity":1,
         "type":"tilelayer",
         "visible":true,
         "width":30,
         "x":0,
         "y":0
        }],
 "nextobjectid":400,
 "orientation":"orthogonal",
 "renderorder":"right-down",
 "tiledversion":"1.1.4",
 "tileheight":32,
 "tilesets":[
        {
         "firstgid":1,
         "source":"dummy_seed_1.tsx"
        }, 
        {
         "firstgid":57,
         "source":"meteors_tiny.tsx"
        }, 
        {
         "firstgid":59,
         "source":"meteors_small.tsx"
        }, 
        {
         "firstgid":61,
         "source":"meteors_med.tsx"
        }, 
        {
         "firstgid":63,
         "source":"meteors_big.tsx"
        }, 
        {
         "firstgid":67,
         "source":"swirl.tsx"
        }, 
        {
         "firstgid":68,
         "source":"gator.tsx"
        }, 
        {
         "firstgid":72,
         "source":"branch1.tsx"
        }, 
        {
         "firstgid":73,
         "source":"branch2.tsx"
        }, 
        {
         "firstgid":74,
         "source":"velocities.tsx"
        }, 
        {
         "firstgid":434,
         "source":"kayak.tsx"
        }],
 "tilewidth":32,
 "type":"map",
 "version":1,
 "width":30
}